{
    "version": "1.0.0-*",
    "buildOptions": {
        "debugType": "portable",
        "emitEntryPoint": true
    },

    "frameworks": {
        "netcoreapp1.1": {
            "dependencies": {
                "Microsoft.AspNetCore.Hosting": "1.0.0",
                "Microsoft.AspNetCore.Server.Kestrel": "1.0.1",
                "Microsoft.AspNetCore.Owin": "1.0.0",
                "Nancy": "2.0.0-barneyrubble",
                "Microsoft.NETCore.App": {
                    "type": "platform",
                    "version": "1.1.0"
                }
            }
        }
    }
}
